<svg xmlns="http://www.w3.org/2000/svg" width="23.845" height="25.482" viewBox="0 0 23.845 25.482">
    <defs>
        <style>
            .cls-1{fill:#ff9a60;stroke:#ff9a60}
        </style>
    </defs>
    <path id="doctor" d="M140.311 93.075v13.106a7.6 7.6 0 0 1-15.2 0v-2.912a4.8 4.8 0 1 0-1.785 0v2.912a9.382 9.382 0 0 0 18.765 0V93.074c6.841-.474-8.617-.474-1.78.001zm-19.106 5.475a3.018 3.018 0 1 1 3.018 3.018 3.018 3.018 0 0 1-3.018-3.018z" class="cls-1" transform="rotate(90 117.484 -1.42)"/>
</svg>
