<svg xmlns="http://www.w3.org/2000/svg" width="491.53" height="356.343" viewBox="0 0 491.53 356.343">
  <g id="Group_12" data-name="Group 12" transform="translate(-586.813 -292.31)">
    <path id="Path_17" data-name="Path 17" d="M254.67-955.316c193.2,72.062,245.407-17.924,262.191-34.159S652.2-1095.307,643.992-857.4,319.04-683.786,319.04-683.786,61.47-1027.378,254.67-955.316Z" transform="translate(404 1311.749)" fill="#dfe3f0" opacity="0.306"/>
    <g id="forms" transform="translate(912.457 464.34)" opacity="0.112">
      <path id="Path_8" data-name="Path 8" d="M119.562,85.213H58.431a2.78,2.78,0,0,1-2.779-2.779V2.779A2.78,2.78,0,0,1,58.431,0h38.9A2.779,2.779,0,0,1,99.3.814l22.23,22.23a2.779,2.779,0,0,1,.814,1.965V82.435A2.78,2.78,0,0,1,119.562,85.213Z" transform="translate(-55.652)" fill="#252a43"/>
      <path id="Path_9" data-name="Path 9" d="M266.3.814A2.779,2.779,0,0,0,264.336,0H256V85.213h30.566a2.78,2.78,0,0,0,2.779-2.779V25.008a2.779,2.779,0,0,0-.814-1.965Z" transform="translate(-222.656)" fill="#383f65"/>
      <path id="Path_10" data-name="Path 10" d="M316.364,23.044,294.134.814A2.779,2.779,0,0,0,292.169,0h-2.778V25.008a2.779,2.779,0,0,0,2.779,2.779h25.008V25.008A2.778,2.778,0,0,0,316.364,23.044Z" transform="translate(-250.489 0)" fill="#555e8b"/>
      <g id="Group_11" data-name="Group 11" transform="translate(11.115 40.754)">
        <circle id="Ellipse_3" data-name="Ellipse 3" cx="2.779" cy="2.779" r="2.779" fill="#fff" opacity="0.194"/>
        <circle id="Ellipse_4" data-name="Ellipse 4" cx="2.779" cy="2.779" r="2.779" transform="translate(0 11.115)" fill="#fff" opacity="0.194"/>
        <circle id="Ellipse_5" data-name="Ellipse 5" cx="2.779" cy="2.779" r="2.779" transform="translate(0 22.23)" fill="#fff" opacity="0.194"/>
        <path id="Path_11" data-name="Path 11" d="M219.783,383.992H192a2.779,2.779,0,0,1,0-5.558h27.787a2.779,2.779,0,1,1,0,5.558Z" transform="translate(-178.102 -356.204)" fill="#fff"/>
      </g>
      <path id="Path_12" data-name="Path 12" d="M275.451,378.435H256v5.557h19.451a2.779,2.779,0,1,0,0-5.557Z" transform="translate(-222.656 -315.451)" fill="#e6f3ff"/>
      <path id="Path_13" data-name="Path 13" d="M219.783,317.208H192a2.779,2.779,0,1,1,0-5.557h27.787a2.779,2.779,0,1,1,0,5.557Z" transform="translate(-166.987 -259.782)" fill="#fff"/>
      <path id="Path_14" data-name="Path 14" d="M275.451,311.652H256v5.557h19.451a2.779,2.779,0,1,0,0-5.557Z" transform="translate(-222.656 -259.783)" fill="#e6f3ff"/>
      <path id="Path_15" data-name="Path 15" d="M219.783,250.427H192a2.779,2.779,0,0,1,0-5.558h27.787a2.779,2.779,0,1,1,0,5.558Z" transform="translate(-166.987 -204.115)" fill="#fff"/>
      <path id="Path_16" data-name="Path 16" d="M275.451,244.87H256v5.557h19.451a2.779,2.779,0,1,0,0-5.557Z" transform="translate(-222.656 -204.116)" fill="#e6f3ff"/>
    </g>
    <g id="forms-2" data-name="forms" transform="translate(978.843 393.545)">
      <path id="Path_8-2" data-name="Path 8" d="M151.007,127.139H59.8a4.147,4.147,0,0,1-4.146-4.146V4.146A4.147,4.147,0,0,1,59.8,0H117.84a4.147,4.147,0,0,1,2.931,1.215l33.167,33.167a4.146,4.146,0,0,1,1.215,2.931v85.681A4.147,4.147,0,0,1,151.007,127.139Z" transform="translate(-55.652)" fill="#252a43"/>
      <path id="Path_9-2" data-name="Path 9" d="M271.369,1.215A4.147,4.147,0,0,0,268.438,0H256V127.139h45.6a4.147,4.147,0,0,0,4.146-4.146V37.313a4.147,4.147,0,0,0-1.215-2.931Z" transform="translate(-206.25)" fill="#ff9a60"/>
      <path id="Path_10-2" data-name="Path 10" d="M329.636,34.382,296.468,1.215A4.147,4.147,0,0,0,293.536,0h-4.145V37.313a4.146,4.146,0,0,0,4.146,4.146H330.85V37.313A4.145,4.145,0,0,0,329.636,34.382Z" transform="translate(-231.349)" fill="#dd7940"/>
      <g id="Group_11-2" data-name="Group 11" transform="translate(16.583 60.806)">
        <circle id="Ellipse_3-2" data-name="Ellipse 3" cx="4.146" cy="4.146" r="4.146" fill="#fff" opacity="0.194"/>
        <circle id="Ellipse_4-2" data-name="Ellipse 4" cx="4.146" cy="4.146" r="4.146" transform="translate(0 16.584)" fill="#fff" opacity="0.194"/>
        <circle id="Ellipse_5-2" data-name="Ellipse 5" cx="4.146" cy="4.146" r="4.146" transform="translate(0 33.167)" fill="#fff" opacity="0.194"/>
        <path id="Path_11-2" data-name="Path 11" d="M234.822,386.726H193.363a4.146,4.146,0,0,1,0-8.292h41.459a4.146,4.146,0,1,1,0,8.292Z" transform="translate(-172.633 -345.267)" fill="#fff"/>
      </g>
      <path id="Path_12-2" data-name="Path 12" d="M285.021,378.435H256v8.292h29.021a4.146,4.146,0,1,0,0-8.292Z" transform="translate(-206.25 -284.462)" fill="#e6f3ff"/>
      <path id="Path_13-2" data-name="Path 13" d="M234.822,319.943H193.363a4.146,4.146,0,1,1,0-8.292h41.459a4.146,4.146,0,1,1,0,8.292Z" transform="translate(-156.05 -234.262)" fill="#fff"/>
      <path id="Path_14-2" data-name="Path 14" d="M285.021,311.652H256v8.292h29.021a4.146,4.146,0,1,0,0-8.292Z" transform="translate(-206.25 -234.263)" fill="#e6f3ff"/>
      <path id="Path_15-2" data-name="Path 15" d="M234.822,253.161H193.363a4.146,4.146,0,0,1,0-8.292h41.459a4.146,4.146,0,1,1,0,8.292Z" transform="translate(-156.05 -184.063)" fill="#fff"/>
      <path id="Path_16-2" data-name="Path 16" d="M285.021,244.87H256v8.292h29.021a4.146,4.146,0,1,0,0-8.292Z" transform="translate(-206.25 -184.064)" fill="#e6f3ff"/>
    </g>
    <g id="first-aid-kit" transform="translate(680.109 414.652)">
      <path id="Path_4" data-name="Path 4" d="M168.193,13.118H103.645A16.143,16.143,0,0,0,87.508,29.255V53.461h16.137V37.323a8.067,8.067,0,0,1,8.069-8.069h48.41a8.066,8.066,0,0,1,8.069,8.069V53.46H184.33V29.254A16.148,16.148,0,0,0,168.193,13.118Z" transform="translate(-6.824 -13.118)" fill="#252a43"/>
      <path id="Path_5" data-name="Path 5" d="M16.137,56.881H242.053a16.145,16.145,0,0,1,16.137,16.145V234.394a16.143,16.143,0,0,1-16.137,16.137H16.137A16.143,16.143,0,0,1,0,234.394V73.026A16.144,16.144,0,0,1,16.137,56.881Z" transform="translate(0 -16.531)" fill="#252a43"/>
      <path id="Path_6" data-name="Path 6" d="M176.261,141.65H152.056V117.461a8.075,8.075,0,0,0-8.069-8.084H127.85a8.075,8.075,0,0,0-8.069,8.084V141.65h-24.2a8.072,8.072,0,0,0-8.069,8.069v16.137a8.07,8.07,0,0,0,8.069,8.084h24.206v24.189a8.056,8.056,0,0,0,8.069,8.069h16.137a8.056,8.056,0,0,0,8.069-8.069V173.94h24.206a8.07,8.07,0,0,0,8.069-8.084V149.719A8.078,8.078,0,0,0,176.261,141.65Z" transform="translate(-6.824 -20.625)" fill="#515671"/>
      <g id="Group_10" data-name="Group 10" transform="translate(0 40.35)">
        <path id="Path_7" data-name="Path 7" d="M16.137,56.881A16.144,16.144,0,0,0,0,73.026V113.36L56.479,56.881Zm-.081,193.642H56.479L0,194.036v40.359A16.129,16.129,0,0,0,16.056,250.523Zm226-193.642H201.711l56.479,56.479V73.026A16.145,16.145,0,0,0,242.053,56.881Zm.08,193.642a16.134,16.134,0,0,0,16.056-16.129V194.036l-56.479,56.487Z" transform="translate(0 -56.881)" fill="#515671"/>
      </g>
    </g>
  </g>
</svg>
