<svg id="Group" xmlns="http://www.w3.org/2000/svg" width="23" height="23" viewBox="0 0 23 23">
  <path id="Path_6200" data-name="Path 6200" d="M19.632,3.368A11.5,11.5,0,0,0,3.368,19.632,11.5,11.5,0,1,0,19.632,3.368ZM16.994,8.763,10.567,15.19a.674.674,0,0,1-.953,0L6.006,11.581a.674.674,0,0,1,.953-.953l3.132,3.132,5.95-5.95a.674.674,0,0,1,.953.953Z" fill="#ebebeb"/>
</svg>
