<svg xmlns="http://www.w3.org/2000/svg" width="30" height="26.004" viewBox="0 0 30 26.004">
    <defs>
        <style>
            .cls-1{fill:#1cd390;fill-rule:evenodd}
        </style>
    </defs>
    <g id="upload" transform="translate(0 .004)">
        <g id="Icon-Set-Filled" transform="translate(-571 -676)">
            <path id="upload-2" d="M599 692a2 2 0 0 0-2 2v4h-22v-4a2 2 0 0 0-4 0v7a1.111 1.111 0 0 0 1 1h28a.974.974 0 0 0 1-1v-7a2 2 0 0 0-2-2zm-17-8h2v9a2 2 0 0 0 4 0v-9h2c.7 0 1.326.095 1.719-.3a1.013 1.013 0 0 0 0-1.426l-4.943-5.991a1.156 1.156 0 0 0-1.52 0l-4.943 5.991a1.012 1.012 0 0 0 0 1.426c.392.395 1.295.3 1.687.3z" class="cls-1" data-name="upload"/>
        </g>
    </g>
</svg>
