<svg xmlns="http://www.w3.org/2000/svg" width="42" height="42" viewBox="0 0 42 42">
  <g id="view_ico" data-name="view ico" transform="translate(-1099 -650)">
    <circle id="Ellipse_9" data-name="Ellipse 9" cx="21" cy="21" r="21" transform="translate(1099 650)" fill="#eceef0"/>
    <g id="eye" transform="translate(1107 661.942)">
      <g id="Group_642" data-name="Group 642" transform="translate(8.838 4.391)">
        <g id="Group_641" data-name="Group 641">
          <g id="Group_640" data-name="Group 640">
            <path id="Path_6189" data-name="Path 6189" d="M12.391,16.783a4.391,4.391,0,1,1,4.391-4.391A4.4,4.4,0,0,1,12.391,16.783Zm0-6.587a2.2,2.2,0,1,0,2.2,2.2A2.2,2.2,0,0,0,12.391,10.2Z" transform="translate(-8 -8)" fill="#252a43"/>
          </g>
        </g>
      </g>
      <g id="Group_644" data-name="Group 644">
        <g id="Group_643" data-name="Group 643">
          <path id="Path_6190" data-name="Path 6190" d="M13.179,21.566c-8.234,0-12.845-7.9-13.065-8.234a1,1,0,0,1,0-1.1C.334,11.9,4.945,4,13.179,4s12.845,7.9,13.065,8.234a1,1,0,0,1,0,1.1C26.024,13.661,21.413,21.566,13.179,21.566ZM2.42,12.783c1.1,1.647,4.94,6.587,10.759,6.587s9.661-4.94,10.759-6.587C22.84,11.136,19,6.2,13.179,6.2S3.518,11.136,2.42,12.783Z" transform="translate(0.05 -4)" fill="#252a43"/>
        </g>
      </g>
    </g>
  </g>
</svg>
